Amp inversor/data_436_001.csv

Channel              :,CH1,CH2
Frequency            :,60.00Hz,59.97Hz
Period               :,16.67ms,16.67ms
PK-PK                :,8.200V?,1.080V
Probe attenuation    :,1X,1X
Voltage per ADC value:,2.500000mV,2.500000mV
Time interval        :,20.00000uS,20.00000uS

index,CH1_Voltage(mV),CH2_Voltage(mV)
1,200.000000,-40.000000
2,200.000000,-40.000000
3,200.000000,-40.000000
4,160.000000,-40.000000
5,120.000000,0.000000
6,120.000000,0.000000
7,80.000000,0.000000
8,80.000000,0.000000
9,80.000000,0.000000
10,40.000000,0.000000
11,40.000000,0.000000
12,-40.000000,40.000000
13,-40.000000,0.000000
14,-40.000000,0.000000
15,-80.000000,0.000000
16,-120.000000,0.000000
17,-120.000000,40.000000
18,-160.000000,40.000000
19,-200.000000,40.000000
20,-200.000000,40.000000
21,-200.000000,40.000000
22,-240.000000,40.000000
23,-240.000000,80.000000
24,-280.000000,80.000000
25,-320.000000,40.000000
26,-320.000000,80.000000
27,-360.000000,80.000000
28,-400.000000,80.000000
29,-440.000000,80.000000
30,-440.000000,80.000000
31,-440.000000,80.000000
32,-480.000000,80.000000
33,-480.000000,80.000000
34,-520.000000,120.000000
35,-560.000000,80.000000
36,-560.000000,120.000000
37,-600.000000,80.000000
38,-600.000000,120.000000
39,-640.000000,160.000000
40,-640.000000,120.000000
41,-680.000000,120.000000
42,-680.000000,120.000000
43,-720.000000,120.000000
44,-760.000000,120.000000
45,-800.000000,160.000000
46,-800.000000,160.000000
47,-800.000000,120.000000
48,-840.000000,160.000000
49,-880.000000,160.000000
50,-880.000000,160.000000
51,-880.000000,160.000000
52,-920.000000,160.000000
53,-960.000000,160.000000
54,-1000.000000,160.000000
55,-1000.000000,160.000000
56,-1000.000000,160.000000
57,-1040.000000,160.000000
58,-1080.000000,200.000000
59,-1080.000000,200.000000
60,-1120.000000,200.000000
61,-1120.000000,200.000000
62,-1120.000000,160.000000
63,-1160.000000,200.000000
64,-1160.000000,200.000000
65,-1200.000000,240.000000
66,-1240.000000,200.000000
67,-1240.000000,200.000000
68,-1240.000000,200.000000
69,-1280.000000,200.000000
70,-1320.000000,240.000000
71,-1320.000000,240.000000
72,-1360.000000,240.000000
73,-1360.000000,240.000000
74,-1400.000000,240.000000
75,-1400.000000,240.000000
76,-1440.000000,240.000000
77,-1440.000000,240.000000
78,-1480.000000,240.000000
79,-1480.000000,240.000000
80,-1520.000000,240.000000
81,-1520.000000,280.000000
82,-1560.000000,240.000000
83,-1560.000000,240.000000
84,-1600.000000,240.000000
85,-1640.000000,280.000000
86,-1600.000000,240.000000
87,-1640.000000,280.000000
88,-1640.000000,280.000000
89,-1680.000000,280.000000
90,-1720.000000,280.000000
91,-1720.000000,280.000000
92,-1760.000000,280.000000
93,-1760.000000,280.000000
94,-1760.000000,320.000000
95,-1800.000000,280.000000
96,-1800.000000,280.000000
97,-1840.000000,320.000000
98,-1880.000000,320.000000
99,-1880.000000,320.000000
100,-1880.000000,320.000000
101,-1920.000000,320.000000
102,-1920.000000,320.000000
103,-1960.000000,320.000000
104,-1960.000000,320.000000
105,-1960.000000,320.000000
106,-2000.000000,320.000000
107,-2000.000000,320.000000
108,-2040.000000,320.000000
109,-2040.000000,360.000000
110,-2080.000000,360.000000
111,-2080.000000,360.000000
112,-2120.000000,320.000000
113,-2120.000000,360.000000
114,-2120.000000,320.000000
115,-2160.000000,360.000000
116,-2120.000000,360.000000
117,-2200.000000,360.000000
118,-2160.000000,360.000000
119,-2240.000000,360.000000
120,-2240.000000,360.000000
121,-2240.000000,360.000000
122,-2240.000000,360.000000
123,-2280.000000,360.000000
124,-2280.000000,360.000000
125,-2320.000000,360.000000
126,-2320.000000,360.000000
127,-2320.000000,400.000000
128,-2320.000000,360.000000
129,-2360.000000,400.000000
130,-2400.000000,400.000000
131,-2400.000000,400.000000
132,-2440.000000,360.000000
133,-2400.000000,400.000000
134,-2440.000000,400.000000
135,-2440.000000,400.000000
136,-2440.000000,400.000000
137,-2480.000000,400.000000
138,-2480.000000,440.000000
139,-2520.000000,400.000000
140,-2480.000000,400.000000
141,-2560.000000,400.000000
142,-2560.000000,400.000000
143,-2560.000000,400.000000
144,-2560.000000,400.000000
145,-2600.000000,400.000000
146,-2600.000000,440.000000
147,-2600.000000,440.000000
148,-2600.000000,440.000000
149,-2600.000000,440.000000
150,-2640.000000,440.000000
151,-2640.000000,440.000000
152,-2680.000000,440.000000
153,-2680.000000,440.000000
154,-2680.000000,440.000000
155,-2680.000000,440.000000
156,-2720.000000,440.000000
157,-2720.000000,440.000000
158,-2760.000000,480.000000
159,-2760.000000,440.000000
160,-2760.000000,440.000000
161,-2800.000000,480.000000
162,-2800.000000,440.000000
163,-2800.000000,440.000000
164,-2800.000000,440.000000
165,-2800.000000,440.000000
166,-2800.000000,480.000000
167,-2800.000000,480.000000
168,-2840.000000,440.000000
169,-2840.000000,440.000000
170,-2840.000000,440.000000
171,-2840.000000,440.000000
172,-2880.000000,480.000000
173,-2880.000000,480.000000
174,-2880.000000,440.000000
175,-2920.000000,480.000000
176,-2920.000000,480.000000
177,-2920.000000,480.000000
178,-2960.000000,480.000000
179,-2920.000000,480.000000
180,-2920.000000,480.000000
181,-2960.000000,480.000000
182,-2920.000000,480.000000
183,-2960.000000,480.000000
184,-2960.000000,480.000000
185,-2960.000000,520.000000
186,-2960.000000,480.000000
187,-3000.000000,480.000000
188,-3000.000000,480.000000
189,-3000.000000,440.000000
190,-3000.000000,480.000000
191,-3000.000000,480.000000
192,-3000.000000,480.000000
193,-3000.000000,480.000000
194,-3000.000000,480.000000
195,-3000.000000,480.000000
196,-3040.000000,480.000000
197,-3040.000000,520.000000
198,-3040.000000,480.000000
199,-3040.000000,520.000000
200,-3040.000000,480.000000
201,-3040.000000,480.000000
202,-3080.000000,480.000000
203,-3040.000000,480.000000
204,-3040.000000,480.000000
205,-3040.000000,480.000000
206,-3080.000000,480.000000
207,-3040.000000,480.000000
208,-3080.000000,520.000000
209,-3120.000000,480.000000
210,-3080.000000,480.000000
211,-3080.000000,480.000000
212,-3080.000000,480.000000
213,-3080.000000,480.000000
214,-3080.000000,480.000000
215,-3080.000000,480.000000
216,-3080.000000,480.000000
217,-3080.000000,480.000000
218,-3080.000000,480.000000
219,-3080.000000,480.000000
220,-3080.000000,520.000000
221,-3080.000000,480.000000
222,-3080.000000,480.000000
223,-3080.000000,480.000000
224,-3080.000000,480.000000
225,-3080.000000,480.000000
226,-3080.000000,520.000000
227,-3080.000000,480.000000
228,-3080.000000,480.000000
229,-3080.000000,480.000000
230,-3080.000000,480.000000
231,-3080.000000,480.000000
232,-3080.000000,480.000000
233,-3080.000000,480.000000
234,-3040.000000,480.000000
235,-3040.000000,520.000000
236,-3080.000000,480.000000
237,-3040.000000,480.000000
238,-3080.000000,520.000000
239,-3040.000000,520.000000
240,-3040.000000,480.000000
241,-3040.000000,480.000000
242,-3040.000000,480.000000
243,-3040.000000,480.000000
244,-3000.000000,480.000000
245,-3040.000000,480.000000
246,-3000.000000,480.000000
247,-3000.000000,480.000000
248,-3040.000000,480.000000
249,-3000.000000,480.000000
250,-3040.000000,480.000000
251,-3000.000000,480.000000
252,-3000.000000,480.000000
253,-3000.000000,480.000000
254,-2960.000000,480.000000
255,-3000.000000,480.000000
256,-2960.000000,480.000000
257,-2960.000000,440.000000
258,-2960.000000,480.000000
259,-2960.000000,480.000000
260,-2960.000000,480.000000
261,-2920.000000,440.000000
262,-2920.000000,480.000000
263,-2920.000000,480.000000
264,-2920.000000,480.000000
265,-2880.000000,440.000000
266,-2920.000000,480.000000
267,-2920.000000,440.000000
268,-2880.000000,480.000000
269,-2880.000000,440.000000
270,-2880.000000,440.000000
271,-2880.000000,440.000000
272,-2880.000000,440.000000
273,-2840.000000,440.000000
274,-2840.000000,440.000000
275,-2840.000000,440.000000
276,-2840.000000,480.000000
277,-2800.000000,440.000000
278,-2760.000000,440.000000
279,-2800.000000,440.000000
280,-2800.000000,440.000000
281,-2760.000000,440.000000
282,-2800.000000,440.000000
283,-2760.000000,440.000000
284,-2720.000000,440.000000
285,-2760.000000,440.000000
286,-2720.000000,440.000000
287,-2720.000000,440.000000
288,-2680.000000,440.000000
289,-2680.000000,400.000000
290,-2680.000000,440.000000
291,-2640.000000,440.000000
292,-2680.000000,440.000000
293,-2640.000000,400.000000
294,-2640.000000,440.000000
295,-2600.000000,400.000000
296,-2600.000000,400.000000
297,-2600.000000,400.000000
298,-2560.000000,400.000000
299,-2560.000000,400.000000
300,-2520.000000,400.000000
301,-2520.000000,400.000000
302,-2520.000000,400.000000
303,-2520.000000,400.000000
304,-2480.000000,400.000000
305,-2480.000000,400.000000
306,-2480.000000,400.000000
307,-2480.000000,400.000000
308,-2400.000000,360.000000
309,-2440.000000,360.000000
310,-2400.000000,360.000000
311,-2400.000000,360.000000
312,-2360.000000,360.000000
313,-2360.000000,400.000000
314,-2360.000000,360.000000
315,-2320.000000,360.000000
316,-2320.000000,400.000000
317,-2320.000000,360.000000
318,-2280.000000,360.000000
319,-2280.000000,360.000000
320,-2240.000000,360.000000
321,-2240.000000,360.000000
322,-2240.000000,360.000000
323,-2200.000000,360.000000
324,-2200.000000,320.000000
325,-2200.000000,320.000000
326,-2160.000000,360.000000
327,-2120.000000,320.000000
328,-2120.000000,360.000000
329,-2120.000000,320.000000
330,-2080.000000,320.000000
331,-2080.000000,320.000000
332,-2040.000000,320.000000
333,-2040.000000,320.000000
334,-2040.000000,320.000000
335,-2000.000000,320.000000
336,-1960.000000,320.000000
337,-1960.000000,280.000000
338,-1960.000000,320.000000
339,-1920.000000,320.000000
340,-1920.000000,280.000000
341,-1920.000000,320.000000
342,-1920.000000,280.000000
343,-1880.000000,320.000000
344,-1880.000000,280.000000
345,-1840.000000,280.000000
346,-1840.000000,320.000000
347,-1760.000000,280.000000
348,-1760.000000,280.000000
349,-1760.000000,280.000000
350,-1760.000000,280.000000
351,-1720.000000,240.000000
352,-1680.000000,240.000000
353,-1680.000000,280.000000
354,-1640.000000,280.000000
355,-1640.000000,240.000000
356,-1640.000000,240.000000
357,-1600.000000,280.000000
358,-1600.000000,240.000000
359,-1600.000000,240.000000
360,-1520.000000,240.000000
361,-1520.000000,240.000000
362,-1480.000000,200.000000
363,-1480.000000,240.000000
364,-1480.000000,240.000000
365,-1440.000000,240.000000
366,-1440.000000,240.000000
367,-1440.000000,240.000000
368,-1400.000000,200.000000
369,-1360.000000,200.000000
370,-1360.000000,200.000000
371,-1360.000000,200.000000
372,-1280.000000,200.000000
373,-1280.000000,200.000000
374,-1240.000000,200.000000
375,-1240.000000,200.000000
376,-1240.000000,200.000000
377,-1200.000000,200.000000
378,-1160.000000,160.000000
379,-1160.000000,160.000000
380,-1160.000000,160.000000
381,-1120.000000,160.000000
382,-1080.000000,160.000000
383,-1080.000000,160.000000
384,-1080.000000,160.000000
385,-1040.000000,160.000000
386,-1000.000000,160.000000
387,-1000.000000,160.000000
388,-960.000000,120.000000
389,-920.000000,120.000000
390,-920.000000,120.000000
391,-920.000000,120.000000
392,-880.000000,120.000000
393,-880.000000,120.000000
394,-840.000000,120.000000
395,-800.000000,120.000000
396,-800.000000,120.000000
397,-800.000000,120.000000
398,-760.000000,120.000000
399,-720.000000,80.000000
400,-720.000000,120.000000
401,-680.000000,80.000000
402,-640.000000,80.000000
403,-640.000000,120.000000
404,-640.000000,80.000000
405,-600.000000,80.000000
406,-600.000000,80.000000
407,-560.000000,80.000000
408,-520.000000,80.000000
409,-520.000000,80.000000
410,-440.000000,80.000000
411,-440.000000,40.000000
412,-440.000000,40.000000
413,-400.000000,40.000000
414,-400.000000,40.000000
415,-360.000000,40.000000
416,-320.000000,40.000000
417,-320.000000,40.000000
418,-320.000000,40.000000
419,-320.000000,40.000000
420,-280.000000,40.000000
421,-240.000000,0.000000
422,-200.000000,40.000000
423,-200.000000,0.000000
424,-160.000000,0.000000
425,-120.000000,0.000000
426,-120.000000,40.000000
427,-120.000000,0.000000
428,-40.000000,0.000000
429,-40.000000,-40.000000
430,0.000000,0.000000
431,40.000000,0.000000
432,40.000000,0.000000
433,40.000000,0.000000
434,80.000000,0.000000
435,120.000000,-40.000000
436,120.000000,0.000000
437,160.000000,-40.000000
438,160.000000,-40.000000
439,160.000000,-40.000000
440,200.000000,-40.000000
441,240.000000,-40.000000
442,240.000000,-40.000000
443,280.000000,-40.000000
444,320.000000,-80.000000
445,320.000000,-40.000000
446,360.000000,-40.000000
447,360.000000,-80.000000
448,400.000000,-80.000000
449,440.000000,-80.000000
450,440.000000,-80.000000
451,480.000000,-80.000000
452,480.000000,-80.000000
453,520.000000,-120.000000
454,560.000000,-80.000000
455,560.000000,-80.000000
456,600.000000,-80.000000
457,600.000000,-120.000000
458,640.000000,-80.000000
459,680.000000,-120.000000
460,680.000000,-120.000000
461,720.000000,-120.000000
462,720.000000,-120.000000
463,760.000000,-160.000000
464,800.000000,-120.000000
465,800.000000,-120.000000
466,800.000000,-160.000000
467,840.000000,-120.000000
468,840.000000,-160.000000
469,880.000000,-120.000000
470,920.000000,-120.000000
471,920.000000,-160.000000
472,920.000000,-160.000000
473,960.000000,-160.000000
474,1000.000000,-160.000000
475,1000.000000,-160.000000
476,1040.000000,-160.000000
477,1040.000000,-200.000000
478,1080.000000,-200.000000
479,1080.000000,-200.000000
480,1160.000000,-200.000000
481,1120.000000,-200.000000
482,1160.000000,-160.000000
483,1200.000000,-200.000000
484,1200.000000,-200.000000
485,1240.000000,-200.000000
486,1240.000000,-200.000000
487,1280.000000,-200.000000
488,1280.000000,-200.000000
489,1320.000000,-240.000000
490,1360.000000,-240.000000
491,1360.000000,-240.000000
492,1360.000000,-240.000000
493,1400.000000,-240.000000
494,1440.000000,-240.000000
495,1440.000000,-240.000000
496,1440.000000,-240.000000
497,1480.000000,-240.000000
498,1480.000000,-240.000000
499,1480.000000,-240.000000
500,1560.000000,-240.000000
501,1560.000000,-280.000000
502,1560.000000,-280.000000
503,1600.000000,-280.000000
504,1600.000000,-280.000000
505,1640.000000,-280.000000
506,1640.000000,-280.000000
507,1680.000000,-280.000000
508,1680.000000,-280.000000
509,1720.000000,-280.000000
510,1720.000000,-280.000000
511,1760.000000,-280.000000
512,1800.000000,-280.000000
513,1800.000000,-280.000000
514,1800.000000,-280.000000
515,1840.000000,-280.000000
516,1840.000000,-320.000000
517,1840.000000,-320.000000
518,1880.000000,-320.000000
519,1880.000000,-280.000000
520,1920.000000,-320.000000
521,1880.000000,-320.000000
522,1960.000000,-320.000000
523,1960.000000,-320.000000
524,1960.000000,-320.000000
525,2000.000000,-320.000000
526,2000.000000,-320.000000
527,2040.000000,-320.000000
528,2080.000000,-320.000000
529,2080.000000,-320.000000
530,2080.000000,-360.000000
531,2120.000000,-360.000000
532,2120.000000,-320.000000
533,2120.000000,-360.000000
534,2120.000000,-360.000000
535,2160.000000,-360.000000
536,2160.000000,-320.000000
537,2200.000000,-360.000000
538,2240.000000,-360.000000
539,2240.000000,-360.000000
540,2240.000000,-400.000000
541,2280.000000,-360.000000
542,2280.000000,-360.000000
543,2280.000000,-360.000000
544,2320.000000,-360.000000
545,2320.000000,-360.000000
546,2320.000000,-360.000000
547,2360.000000,-400.000000
548,2400.000000,-360.000000
549,2400.000000,-400.000000
550,2440.000000,-400.000000
551,2400.000000,-400.000000
552,2440.000000,-440.000000
553,2440.000000,-400.000000
554,2440.000000,-400.000000
555,2480.000000,-400.000000
556,2480.000000,-400.000000
557,2480.000000,-400.000000
558,2520.000000,-400.000000
559,2520.000000,-400.000000
560,2520.000000,-400.000000
561,2560.000000,-400.000000
562,2560.000000,-440.000000
563,2560.000000,-400.000000
564,2600.000000,-400.000000
565,2600.000000,-440.000000
566,2600.000000,-440.000000
567,2640.000000,-440.000000
568,2640.000000,-440.000000
569,2640.000000,-400.000000
570,2680.000000,-440.000000
571,2680.000000,-400.000000
572,2680.000000,-440.000000
573,2680.000000,-440.000000
574,2720.000000,-440.000000
575,2720.000000,-440.000000
576,2760.000000,-440.000000
577,2760.000000,-440.000000
578,2720.000000,-440.000000
579,2760.000000,-440.000000
580,2800.000000,-440.000000
581,2800.000000,-440.000000
582,2760.000000,-440.000000
583,2800.000000,-440.000000
584,2800.000000,-440.000000
585,2840.000000,-480.000000
586,2840.000000,-480.000000
587,2840.000000,-480.000000
588,2840.000000,-480.000000
589,2840.000000,-440.000000
590,2840.000000,-480.000000
591,2840.000000,-480.000000
592,2880.000000,-480.000000
593,2880.000000,-480.000000
594,2880.000000,-480.000000
595,2920.000000,-480.000000
596,2920.000000,-480.000000
597,2920.000000,-480.000000
598,2920.000000,-480.000000
599,2920.000000,-440.000000
600,2960.000000,-480.000000
601,2920.000000,-480.000000
602,2920.000000,-480.000000
603,2920.000000,-480.000000
604,2960.000000,-480.000000
605,2960.000000,-440.000000
606,2960.000000,-480.000000
607,2960.000000,-480.000000
608,2960.000000,-480.000000
609,2960.000000,-480.000000
610,2960.000000,-480.000000
611,3000.000000,-480.000000
612,3000.000000,-480.000000
613,3000.000000,-480.000000
614,3000.000000,-480.000000
615,3000.000000,-480.000000
616,3000.000000,-480.000000
617,3040.000000,-480.000000
618,3040.000000,-480.000000
619,3040.000000,-480.000000
620,3040.000000,-480.000000
621,3000.000000,-480.000000
622,3000.000000,-480.000000
623,3040.000000,-480.000000
624,3000.000000,-480.000000
625,3040.000000,-520.000000
626,3040.000000,-480.000000
627,3040.000000,-480.000000
628,3080.000000,-480.000000
629,3040.000000,-480.000000
630,3040.000000,-480.000000
631,3040.000000,-480.000000
632,3040.000000,-480.000000
633,3040.000000,-480.000000
634,3040.000000,-480.000000
635,3040.000000,-480.000000
636,3040.000000,-480.000000
637,3040.000000,-480.000000
638,3040.000000,-480.000000
639,3080.000000,-480.000000
640,3040.000000,-480.000000
641,3040.000000,-440.000000
642,3040.000000,-480.000000
643,3040.000000,-480.000000
644,3040.000000,-480.000000
645,3080.000000,-480.000000
646,3040.000000,-480.000000
647,3040.000000,-480.000000
648,3040.000000,-480.000000
649,3040.000000,-480.000000
650,3040.000000,-480.000000
651,3000.000000,-480.000000
652,3040.000000,-480.000000
653,3000.000000,-480.000000
654,3040.000000,-480.000000
655,3080.000000,-480.000000
656,3000.000000,-480.000000
657,3040.000000,-480.000000
658,3000.000000,-480.000000
659,3000.000000,-480.000000
660,3000.000000,-480.000000
661,3000.000000,-480.000000
662,3000.000000,-480.000000
663,3000.000000,-480.000000
664,3000.000000,-480.000000
665,3000.000000,-480.000000
666,2960.000000,-480.000000
667,2960.000000,-480.000000
668,2960.000000,-440.000000
669,2960.000000,-440.000000
670,2960.000000,-480.000000
671,2960.000000,-480.000000
672,2920.000000,-480.000000
673,2960.000000,-480.000000
674,2920.000000,-480.000000
675,2920.000000,-480.000000
676,2920.000000,-480.000000
677,2920.000000,-480.000000
678,2920.000000,-480.000000
679,2920.000000,-440.000000
680,2920.000000,-440.000000
681,2880.000000,-440.000000
682,2880.000000,-440.000000
683,2880.000000,-440.000000
684,2880.000000,-440.000000
685,2880.000000,-440.000000
686,2840.000000,-480.000000
687,2840.000000,-440.000000
688,2840.000000,-440.000000
689,2800.000000,-440.000000
690,2840.000000,-440.000000
691,2800.000000,-480.000000
692,2800.000000,-480.000000
693,2760.000000,-440.000000
694,2800.000000,-440.000000
695,2800.000000,-440.000000
696,2760.000000,-440.000000
697,2760.000000,-440.000000
698,2760.000000,-440.000000
699,2720.000000,-440.000000
700,2720.000000,-400.000000
701,2720.000000,-440.000000
702,2680.000000,-440.000000
703,2680.000000,-400.000000
704,2680.000000,-400.000000
705,2680.000000,-440.000000
706,2640.000000,-400.000000
707,2640.000000,-440.000000
708,2640.000000,-400.000000
709,2600.000000,-400.000000
710,2600.000000,-400.000000
711,2600.000000,-400.000000
712,2560.000000,-400.000000
713,2560.000000,-400.000000
714,2560.000000,-400.000000
715,2520.000000,-400.000000
716,2520.000000,-360.000000
717,2480.000000,-400.000000
