Amp no inversor/data_436_000.csv

Channel              :,CH1,CH2
Frequency            :,1.000kHz,1.000kHz
Period               :,1.000ms,1.000ms
PK-PK                :,5.920V,2.000V
Probe attenuation    :,1X,1X
Voltage per ADC value:,2.500000mV,2.500000mV
Time interval        :,0.40000uS,0.40000uS

index,CH1_Voltage(mV),CH2_Voltage(mV)
1,2160.000000,680.000000
2,2160.000000,680.000000
3,2160.000000,720.000000
4,2160.000000,680.000000
5,2160.000000,720.000000
6,2160.000000,720.000000
7,2160.000000,720.000000
8,2200.000000,680.000000
9,2200.000000,720.000000
10,2200.000000,720.000000
11,2200.000000,720.000000
12,2200.000000,720.000000
13,2240.000000,720.000000
14,2200.000000,720.000000
15,2200.000000,720.000000
16,2240.000000,720.000000
17,2240.000000,720.000000
18,2240.000000,720.000000
19,2240.000000,760.000000
20,2280.000000,720.000000
21,2240.000000,720.000000
22,2280.000000,760.000000
23,2240.000000,720.000000
24,2240.000000,760.000000
25,2240.000000,720.000000
26,2280.000000,760.000000
27,2280.000000,720.000000
28,2280.000000,760.000000
29,2280.000000,720.000000
30,2280.000000,760.000000
31,2280.000000,760.000000
32,2280.000000,760.000000
33,2280.000000,760.000000
34,2320.000000,760.000000
35,2280.000000,760.000000
36,2320.000000,760.000000
37,2320.000000,760.000000
38,2320.000000,760.000000
39,2360.000000,760.000000
40,2360.000000,760.000000
41,2360.000000,760.000000
42,2360.000000,760.000000
43,2360.000000,760.000000
44,2360.000000,760.000000
45,2360.000000,760.000000
46,2360.000000,760.000000
47,2400.000000,760.000000
48,2400.000000,760.000000
49,2400.000000,760.000000
50,2400.000000,760.000000
51,2360.000000,760.000000
52,2400.000000,760.000000
53,2440.000000,800.000000
54,2440.000000,800.000000
55,2400.000000,760.000000
56,2440.000000,760.000000
57,2400.000000,760.000000
58,2440.000000,800.000000
59,2440.000000,800.000000
60,2400.000000,800.000000
61,2440.000000,800.000000
62,2440.000000,800.000000
63,2440.000000,800.000000
64,2440.000000,800.000000
65,2440.000000,800.000000
66,2440.000000,800.000000
67,2440.000000,800.000000
68,2440.000000,800.000000
69,2440.000000,800.000000
70,2480.000000,800.000000
71,2480.000000,800.000000
72,2480.000000,800.000000
73,2440.000000,800.000000
74,2480.000000,800.000000
75,2520.000000,800.000000
76,2480.000000,800.000000
77,2480.000000,840.000000
78,2480.000000,840.000000
79,2560.000000,840.000000
80,2520.000000,800.000000
81,2520.000000,840.000000
82,2520.000000,840.000000
83,2520.000000,800.000000
84,2520.000000,840.000000
85,2520.000000,840.000000
86,2520.000000,840.000000
87,2520.000000,840.000000
88,2560.000000,800.000000
89,2520.000000,840.000000
90,2560.000000,840.000000
91,2560.000000,840.000000
92,2560.000000,840.000000
93,2560.000000,840.000000
94,2560.000000,840.000000
95,2560.000000,840.000000
96,2600.000000,840.000000
97,2600.000000,800.000000
98,2600.000000,840.000000
99,2600.000000,840.000000
100,2600.000000,840.000000
101,2600.000000,840.000000
102,2600.000000,840.000000
103,2600.000000,840.000000
104,2600.000000,840.000000
105,2600.000000,840.000000
106,2600.000000,840.000000
107,2600.000000,840.000000
108,2600.000000,840.000000
109,2600.000000,840.000000
110,2640.000000,840.000000
111,2640.000000,880.000000
112,2640.000000,840.000000
113,2600.000000,880.000000
114,2680.000000,840.000000
115,2640.000000,880.000000
116,2640.000000,880.000000
117,2600.000000,880.000000
118,2640.000000,840.000000
119,2640.000000,880.000000
120,2680.000000,880.000000
121,2680.000000,880.000000
122,2680.000000,880.000000
123,2680.000000,880.000000
124,2680.000000,880.000000
125,2680.000000,880.000000
126,2680.000000,880.000000
127,2680.000000,880.000000
128,2680.000000,880.000000
129,2680.000000,880.000000
130,2720.000000,880.000000
131,2720.000000,880.000000
132,2720.000000,880.000000
133,2720.000000,840.000000
134,2720.000000,880.000000
135,2720.000000,880.000000
136,2680.000000,880.000000
137,2720.000000,920.000000
138,2720.000000,880.000000
139,2720.000000,880.000000
140,2760.000000,880.000000
141,2720.000000,880.000000
142,2760.000000,880.000000
143,2720.000000,920.000000
144,2720.000000,920.000000
145,2760.000000,880.000000
146,2760.000000,880.000000
147,2760.000000,880.000000
148,2720.000000,880.000000
149,2760.000000,880.000000
150,2760.000000,920.000000
151,2760.000000,920.000000
152,2760.000000,880.000000
153,2760.000000,880.000000
154,2760.000000,880.000000
155,2760.000000,880.000000
156,2760.000000,880.000000
157,2760.000000,880.000000
158,2800.000000,880.000000
159,2800.000000,920.000000
160,2800.000000,920.000000
161,2760.000000,920.000000
162,2800.000000,880.000000
163,2800.000000,920.000000
164,2800.000000,920.000000
165,2800.000000,920.000000
166,2800.000000,920.000000
167,2800.000000,920.000000
168,2800.000000,880.000000
169,2800.000000,920.000000
170,2800.000000,920.000000
171,2840.000000,920.000000
172,2800.000000,920.000000
173,2800.000000,920.000000
174,2840.000000,880.000000
175,2840.000000,920.000000
176,2840.000000,920.000000
177,2840.000000,920.000000
178,2840.000000,920.000000
179,2840.000000,920.000000
180,2840.000000,920.000000
181,2840.000000,920.000000
182,2840.000000,920.000000
183,2840.000000,920.000000
184,2840.000000,920.000000
185,2840.000000,960.000000
186,2840.000000,920.000000
187,2840.000000,920.000000
188,2840.000000,920.000000
189,2840.000000,920.000000
190,2840.000000,920.000000
191,2840.000000,920.000000
192,2840.000000,920.000000
193,2840.000000,920.000000
194,2880.000000,960.000000
195,2880.000000,920.000000
196,2840.000000,920.000000
197,2880.000000,960.000000
198,2880.000000,920.000000
199,2880.000000,920.000000
200,2880.000000,920.000000
201,2880.000000,920.000000
202,2840.000000,960.000000
203,2880.000000,960.000000
204,2880.000000,960.000000
205,2880.000000,960.000000
206,2920.000000,920.000000
207,2920.000000,960.000000
208,2920.000000,960.000000
209,2880.000000,920.000000
210,2920.000000,960.000000
211,2920.000000,960.000000
212,2880.000000,960.000000
213,2880.000000,960.000000
214,2880.000000,960.000000
215,2880.000000,960.000000
216,2920.000000,960.000000
217,2920.000000,920.000000
218,2920.000000,960.000000
219,2920.000000,960.000000
220,2920.000000,960.000000
221,2920.000000,960.000000
222,2920.000000,960.000000
223,2920.000000,960.000000
224,2920.000000,960.000000
225,2920.000000,960.000000
226,2920.000000,920.000000
227,2920.000000,960.000000
228,2920.000000,960.000000
229,2920.000000,920.000000
230,2920.000000,960.000000
231,2920.000000,960.000000
232,2920.000000,960.000000
233,2920.000000,960.000000
234,2920.000000,960.000000
235,2920.000000,960.000000
236,2920.000000,960.000000
237,2960.000000,960.000000
238,2960.000000,960.000000
239,2920.000000,960.000000
240,2920.000000,960.000000
241,2960.000000,960.000000
242,2920.000000,960.000000
243,2960.000000,960.000000
244,2960.000000,960.000000
245,2920.000000,960.000000
246,2960.000000,960.000000
247,2960.000000,960.000000
248,2960.000000,960.000000
249,2960.000000,960.000000
250,2960.000000,960.000000
251,2960.000000,960.000000
252,2960.000000,960.000000
253,2960.000000,1000.000000
254,2960.000000,960.000000
255,2960.000000,960.000000
256,3000.000000,960.000000
257,2960.000000,960.000000
258,2960.000000,960.000000
259,3000.000000,960.000000
260,2960.000000,960.000000
261,2960.000000,960.000000
262,2960.000000,960.000000
263,2960.000000,960.000000
264,2960.000000,960.000000
265,2960.000000,960.000000
266,2960.000000,960.000000
267,2960.000000,960.000000
268,2960.000000,960.000000
269,3000.000000,960.000000
270,3000.000000,960.000000
271,2960.000000,960.000000
272,2960.000000,960.000000
273,2960.000000,1000.000000
274,2960.000000,1000.000000
275,2960.000000,1000.000000
276,3000.000000,960.000000
277,3000.000000,960.000000
278,3000.000000,960.000000
279,2960.000000,1000.000000
280,3000.000000,1000.000000
281,2960.000000,960.000000
282,2960.000000,960.000000
283,2960.000000,1000.000000
284,2960.000000,960.000000
285,2960.000000,1000.000000
286,3000.000000,960.000000
287,3000.000000,1000.000000
288,2960.000000,960.000000
289,2960.000000,960.000000
290,3000.000000,960.000000
291,3000.000000,1000.000000
292,2960.000000,960.000000
293,3000.000000,960.000000
294,3000.000000,960.000000
295,3000.000000,1000.000000
296,2960.000000,960.000000
297,2960.000000,1000.000000
298,3000.000000,960.000000
299,3000.000000,960.000000
300,3000.000000,1000.000000
301,3000.000000,960.000000
302,3000.000000,960.000000
303,3000.000000,960.000000
304,2960.000000,960.000000
305,3000.000000,1000.000000
306,3000.000000,960.000000
307,2960.000000,960.000000
308,3000.000000,960.000000
309,2960.000000,960.000000
310,2960.000000,960.000000
311,3000.000000,960.000000
312,2960.000000,960.000000
313,3000.000000,1000.000000
314,3000.000000,960.000000
315,3000.000000,1000.000000
316,2960.000000,1000.000000
317,3000.000000,960.000000
318,3000.000000,1000.000000
319,3000.000000,1000.000000
320,2960.000000,1000.000000
321,2960.000000,960.000000
322,3000.000000,960.000000
323,3000.000000,1000.000000
324,3000.000000,960.000000
325,3000.000000,1000.000000
326,2960.000000,960.000000
327,3000.000000,960.000000
328,3000.000000,960.000000
329,3000.000000,960.000000
330,3000.000000,960.000000
331,3000.000000,960.000000
332,2960.000000,960.000000
333,3000.000000,960.000000
334,2960.000000,960.000000
335,2960.000000,960.000000
336,3000.000000,960.000000
337,2960.000000,960.000000
338,2960.000000,1000.000000
339,2960.000000,960.000000
340,2960.000000,960.000000
341,2960.000000,960.000000
342,2960.000000,1000.000000
343,2960.000000,960.000000
344,3000.000000,1000.000000
345,2960.000000,960.000000
346,2960.000000,960.000000
347,2960.000000,960.000000
348,2960.000000,960.000000
349,2960.000000,1000.000000
350,2960.000000,1000.000000
351,2960.000000,960.000000
352,2960.000000,1000.000000
353,2960.000000,960.000000
354,2960.000000,960.000000
355,2960.000000,1000.000000
356,2960.000000,960.000000
357,2960.000000,960.000000
358,2960.000000,960.000000
359,2920.000000,960.000000
360,2960.000000,960.000000
361,2960.000000,1000.000000
362,2960.000000,960.000000
363,2960.000000,960.000000
364,2960.000000,960.000000
365,2960.000000,960.000000
366,2960.000000,960.000000
367,2960.000000,960.000000
368,2960.000000,960.000000
369,2960.000000,960.000000
370,2920.000000,960.000000
371,2960.000000,960.000000
372,2960.000000,960.000000
373,2960.000000,960.000000
374,2960.000000,960.000000
375,2960.000000,960.000000
376,2920.000000,960.000000
377,2960.000000,960.000000
378,2960.000000,960.000000
379,2920.000000,960.000000
380,2920.000000,960.000000
381,2920.000000,960.000000
382,2920.000000,960.000000
383,2920.000000,920.000000
384,2920.000000,960.000000
385,2920.000000,960.000000
386,2920.000000,960.000000
387,2920.000000,960.000000
388,2920.000000,960.000000
389,2920.000000,960.000000
390,2920.000000,960.000000
391,2920.000000,960.000000
392,2920.000000,920.000000
393,2920.000000,960.000000
394,2920.000000,960.000000
395,2920.000000,960.000000
396,2920.000000,920.000000
397,2880.000000,960.000000
398,2920.000000,960.000000
399,2920.000000,960.000000
400,2880.000000,920.000000
401,2880.000000,960.000000
402,2880.000000,920.000000
403,2920.000000,920.000000
404,2880.000000,960.000000
405,2920.000000,960.000000
406,2880.000000,920.000000
407,2880.000000,920.000000
408,2920.000000,960.000000
409,2920.000000,960.000000
410,2880.000000,920.000000
411,2920.000000,920.000000
412,2880.000000,920.000000
413,2920.000000,920.000000
414,2880.000000,920.000000
415,2880.000000,920.000000
416,2880.000000,960.000000
417,2880.000000,920.000000
418,2880.000000,920.000000
419,2880.000000,960.000000
420,2880.000000,920.000000
421,2880.000000,920.000000
422,2880.000000,920.000000
423,2840.000000,920.000000
424,2840.000000,960.000000
425,2840.000000,920.000000
426,2840.000000,960.000000
427,2840.000000,920.000000
428,2840.000000,920.000000
429,2840.000000,960.000000
430,2880.000000,920.000000
431,2840.000000,920.000000
432,2840.000000,920.000000
433,2840.000000,960.000000
434,2840.000000,920.000000
435,2840.000000,960.000000
436,2840.000000,920.000000
437,2840.000000,920.000000
438,2840.000000,920.000000
439,2840.000000,960.000000
440,2840.000000,920.000000
441,2800.000000,920.000000
442,2840.000000,920.000000
443,2840.000000,920.000000
444,2800.000000,920.000000
445,2840.000000,920.000000
446,2840.000000,920.000000
447,2840.000000,920.000000
448,2800.000000,920.000000
449,2800.000000,880.000000
450,2840.000000,920.000000
451,2840.000000,960.000000
452,2800.000000,920.000000
453,2760.000000,920.000000
454,2800.000000,920.000000
455,2800.000000,920.000000
456,2800.000000,920.000000
457,2800.000000,920.000000
458,2760.000000,920.000000
459,2800.000000,920.000000
460,2760.000000,920.000000
461,2800.000000,920.000000
462,2760.000000,920.000000
463,2760.000000,920.000000
464,2800.000000,920.000000
465,2760.000000,920.000000
466,2760.000000,920.000000
467,2760.000000,920.000000
468,2760.000000,920.000000
469,2760.000000,920.000000
470,2720.000000,880.000000
471,2720.000000,880.000000
472,2720.000000,880.000000
473,2720.000000,920.000000
474,2760.000000,880.000000
475,2720.000000,920.000000
476,2720.000000,920.000000
477,2760.000000,880.000000
478,2760.000000,880.000000
479,2720.000000,880.000000
480,2720.000000,880.000000
481,2720.000000,920.000000
482,2720.000000,880.000000
483,2720.000000,880.000000
484,2680.000000,880.000000
485,2720.000000,880.000000
486,2720.000000,880.000000
487,2720.000000,880.000000
488,2680.000000,880.000000
489,2680.000000,880.000000
490,2680.000000,880.000000
491,2720.000000,880.000000
492,2680.000000,880.000000
493,2640.000000,880.000000
494,2680.000000,880.000000
495,2680.000000,880.000000
496,2680.000000,880.000000
497,2680.000000,880.000000
498,2640.000000,880.000000
499,2680.000000,840.000000
500,2680.000000,880.000000
501,2640.000000,880.000000
502,2640.000000,880.000000
503,2640.000000,880.000000
504,2640.000000,880.000000
505,2640.000000,880.000000
506,2600.000000,840.000000
507,2600.000000,840.000000
508,2640.000000,840.000000
509,2600.000000,840.000000
510,2600.000000,880.000000
511,2600.000000,880.000000
512,2600.000000,840.000000
513,2640.000000,840.000000
514,2600.000000,840.000000
515,2640.000000,840.000000
516,2640.000000,840.000000
517,2600.000000,840.000000
518,2600.000000,840.000000
519,2600.000000,840.000000
520,2600.000000,840.000000
521,2600.000000,840.000000
522,2560.000000,840.000000
523,2600.000000,840.000000
524,2560.000000,840.000000
525,2560.000000,840.000000
526,2560.000000,840.000000
527,2560.000000,840.000000
528,2560.000000,800.000000
529,2520.000000,840.000000
530,2560.000000,840.000000
531,2520.000000,840.000000
532,2560.000000,840.000000
533,2520.000000,840.000000
534,2520.000000,800.000000
535,2520.000000,840.000000
536,2520.000000,840.000000
537,2520.000000,840.000000
538,2520.000000,840.000000
539,2520.000000,800.000000
540,2520.000000,840.000000
541,2520.000000,800.000000
542,2480.000000,800.000000
543,2480.000000,800.000000
544,2480.000000,800.000000
545,2480.000000,840.000000
546,2480.000000,800.000000
547,2440.000000,800.000000
548,2480.000000,800.000000
549,2480.000000,840.000000
550,2480.000000,800.000000
551,2480.000000,800.000000
552,2480.000000,840.000000
553,2440.000000,800.000000
554,2440.000000,800.000000
555,2440.000000,800.000000
556,2440.000000,800.000000
557,2440.000000,800.000000
558,2440.000000,800.000000
559,2440.000000,760.000000
560,2440.000000,800.000000
561,2400.000000,800.000000
562,2440.000000,800.000000
563,2440.000000,800.000000
564,2400.000000,800.000000
565,2400.000000,760.000000
566,2400.000000,800.000000
567,2400.000000,800.000000
568,2400.000000,760.000000
569,2360.000000,760.000000
570,2360.000000,760.000000
571,2360.000000,760.000000
572,2360.000000,760.000000
573,2360.000000,760.000000
574,2320.000000,800.000000
575,2360.000000,760.000000
576,2360.000000,760.000000
577,2360.000000,760.000000
578,2360.000000,760.000000
579,2360.000000,760.000000
580,2320.000000,760.000000
581,2320.000000,760.000000
582,2280.000000,760.000000
583,2320.000000,760.000000
584,2320.000000,760.000000
585,2280.000000,760.000000
586,2320.000000,760.000000
587,2320.000000,760.000000
588,2280.000000,760.000000
589,2280.000000,760.000000
590,2320.000000,720.000000
591,2280.000000,760.000000
592,2280.000000,760.000000
593,2280.000000,760.000000
594,2280.000000,760.000000
595,2240.000000,760.000000
596,2240.000000,720.000000
597,2280.000000,720.000000
598,2240.000000,720.000000
599,2240.000000,720.000000
600,2240.000000,720.000000
601,2240.000000,720.000000
602,2240.000000,720.000000
603,2200.000000,720.000000
604,2200.000000,720.000000
605,2200.000000,720.000000
606,2200.000000,720.000000
607,2200.000000,720.000000
608,2200.000000,720.000000
609,2200.000000,720.000000
610,2160.000000,720.000000
611,2200.000000,720.000000
612,2160.000000,720.000000
613,2160.000000,680.000000
614,2160.000000,680.000000
615,2200.000000,680.000000
616,2160.000000,720.000000
617,2160.000000,720.000000
618,2120.000000,720.000000
619,2120.000000,720.000000
620,2120.000000,720.000000
621,2120.000000,680.000000
622,2120.000000,680.000000
623,2120.000000,680.000000
624,2120.000000,680.000000
625,2120.000000,680.000000
626,2120.000000,720.000000
627,2080.000000,680.000000
628,2080.000000,680.000000
629,2120.000000,680.000000
630,2080.000000,680.000000
631,2080.000000,680.000000
632,2080.000000,640.000000
633,2080.000000,680.000000
634,2040.000000,680.000000
635,2040.000000,680.000000
636,2040.000000,680.000000
637,2040.000000,680.000000
638,2040.000000,680.000000
639,2040.000000,680.000000
640,2040.000000,680.000000
641,2000.000000,640.000000
642,2000.000000,640.000000
643,2000.000000,640.000000
644,2000.000000,680.000000
645,2000.000000,640.000000
646,2000.000000,640.000000
647,2000.000000,640.000000
648,1960.000000,640.000000
649,1960.000000,640.000000
650,1960.000000,680.000000
651,1960.000000,680.000000
652,1960.000000,640.000000
653,1920.000000,640.000000
654,1960.000000,640.000000
655,1960.000000,640.000000
656,1920.000000,640.000000
657,1920.000000,640.000000
658,1920.000000,640.000000
659,1920.000000,640.000000
660,1920.000000,640.000000
661,1880.000000,600.000000
662,1920.000000,600.000000
663,1880.000000,600.000000
664,1920.000000,600.000000
665,1880.000000,600.000000
666,1880.000000,600.000000
667,1880.000000,600.000000
668,1880.000000,600.000000
669,1880.000000,600.000000
670,1840.000000,600.000000
671,1840.000000,600.000000
672,1840.000000,600.000000
673,1840.000000,600.000000
674,1840.000000,600.000000
675,1840.000000,600.000000
676,1840.000000,600.000000
677,1840.000000,600.000000
678,1840.000000,600.000000
679,1800.000000,600.000000
680,1800.000000,600.000000
681,1800.000000,600.000000
682,1800.000000,600.000000
683,1760.000000,560.000000
684,1760.000000,560.000000
685,1800.000000,600.000000
686,1760.000000,600.000000
687,1760.000000,600.000000
688,1720.000000,560.000000
689,1720.000000,560.000000
690,1720.000000,560.000000
691,1720.000000,560.000000
692,1720.000000,560.000000
693,1720.000000,560.000000
694,1720.000000,560.000000
695,1720.000000,560.000000
696,1720.000000,520.000000
697,1720.000000,560.000000
698,1720.000000,560.000000
699,1680.000000,560.000000
700,1680.000000,560.000000
701,1640.000000,520.000000
702,1680.000000,560.000000
703,1680.000000,560.000000
704,1640.000000,560.000000
705,1640.000000,560.000000
706,1640.000000,560.000000
707,1640.000000,520.000000
708,1640.000000,520.000000
709,1600.000000,520.000000
710,1600.000000,520.000000
711,1600.000000,520.000000
712,1600.000000,520.000000
713,1600.000000,520.000000
714,1600.000000,520.000000
715,1600.000000,520.000000
716,1560.000000,520.000000
717,1560.000000,520.000000
718,1560.000000,520.000000
719,1560.000000,520.000000
720,1600.000000,520.000000
721,1560.000000,520.000000
722,1520.000000,520.000000
723,1520.000000,520.000000
724,1560.000000,520.000000
725,1520.000000,520.000000
726,1520.000000,480.000000
727,1520.000000,520.000000
728,1520.000000,520.000000
729,1520.000000,480.000000
730,1480.000000,480.000000
731,1480.000000,480.000000
732,1480.000000,480.000000
