Sumador inversor/data_446_002mmm.csv

Channel              :,CH1,CH2
Frequency            :,1.000kHz,1.000kHz
Period               :,1.000ms,1.000ms
PK-PK                :,5.880V,1.040V
Probe attenuation    :,1X,1X
Voltage per ADC value:,2.500000mV,2.500000mV
Time interval        :,0.40000uS,0.40000uS

index,CH1_Voltage(mV),CH2_Voltage(mV)
1,-1520.000000,480.000000
2,-1520.000000,480.000000
3,-1560.000000,480.000000
4,-1520.000000,480.000000
5,-1520.000000,480.000000
6,-1520.000000,520.000000
7,-1520.000000,480.000000
8,-1520.000000,480.000000
9,-1520.000000,480.000000
10,-1520.000000,480.000000
11,-1520.000000,480.000000
12,-1520.000000,480.000000
13,-1520.000000,480.000000
14,-1480.000000,480.000000
15,-1480.000000,480.000000
16,-1480.000000,480.000000
17,-1480.000000,480.000000
18,-1520.000000,480.000000
19,-1480.000000,480.000000
20,-1560.000000,480.000000
21,-1560.000000,-480.000000
22,-1600.000000,-480.000000
23,-1600.000000,-520.000000
24,-1600.000000,-480.000000
25,-1600.000000,-520.000000
26,-1640.000000,-480.000000
27,-1600.000000,-480.000000
28,-1600.000000,-480.000000
29,-1520.000000,-520.000000
30,-1400.000000,-520.000000
31,-1200.000000,-480.000000
32,-1040.000000,-520.000000
33,-880.000000,-480.000000
34,-720.000000,-480.000000
35,-560.000000,-480.000000
36,-360.000000,-480.000000
37,-240.000000,-520.000000
38,-40.000000,-480.000000
39,120.000000,-480.000000
40,280.000000,-480.000000
41,440.000000,-520.000000
42,640.000000,-520.000000
43,800.000000,-480.000000
44,960.000000,-480.000000
45,1120.000000,-480.000000
46,1200.000000,-480.000000
47,1320.000000,-480.000000
48,1400.000000,-480.000000
49,1440.000000,-480.000000
50,1440.000000,-520.000000
51,1480.000000,-520.000000
52,1480.000000,-480.000000
53,1480.000000,-520.000000
54,1480.000000,-480.000000
55,1520.000000,-480.000000
56,1520.000000,-480.000000
57,1520.000000,-520.000000
58,1520.000000,-480.000000
59,1520.000000,-480.000000
60,1520.000000,-480.000000
61,1520.000000,-480.000000
62,1520.000000,-480.000000
63,1520.000000,-520.000000
64,1520.000000,-480.000000
65,1520.000000,-480.000000
66,1520.000000,-520.000000
67,1560.000000,-480.000000
68,1560.000000,-480.000000
69,1520.000000,-480.000000
70,1560.000000,-480.000000
71,1560.000000,-480.000000
72,1560.000000,-520.000000
73,1560.000000,-520.000000
74,1560.000000,-520.000000
75,1560.000000,-480.000000
76,1560.000000,-480.000000
77,1560.000000,-520.000000
78,1560.000000,-480.000000
79,1560.000000,-480.000000
80,1560.000000,-520.000000
81,1600.000000,-520.000000
82,1600.000000,-520.000000
83,1600.000000,-480.000000
84,1600.000000,-520.000000
85,1560.000000,-480.000000
86,1600.000000,-520.000000
87,1560.000000,-480.000000
88,1600.000000,-480.000000
89,1560.000000,-480.000000
90,1600.000000,-520.000000
91,1600.000000,-520.000000
92,1600.000000,-480.000000
93,1600.000000,-520.000000
94,1600.000000,-520.000000
95,1600.000000,-480.000000
96,1600.000000,-480.000000
97,1600.000000,-520.000000
98,1600.000000,-480.000000
99,1600.000000,-480.000000
100,1640.000000,-480.000000
101,1600.000000,-480.000000
102,1640.000000,-480.000000
103,1640.000000,-480.000000
104,1640.000000,-520.000000
105,1640.000000,-520.000000
106,1640.000000,-520.000000
107,1640.000000,-480.000000
108,1640.000000,-480.000000
109,1640.000000,-520.000000
110,1640.000000,-520.000000
111,1680.000000,-480.000000
112,1640.000000,-480.000000
113,1680.000000,-480.000000
114,1640.000000,-480.000000
115,1640.000000,-480.000000
116,1640.000000,-480.000000
117,1680.000000,-480.000000
118,1680.000000,-480.000000
119,1680.000000,-480.000000
120,1680.000000,-480.000000
121,1640.000000,-520.000000
122,1680.000000,-480.000000
123,1640.000000,-520.000000
124,1680.000000,-480.000000
125,1680.000000,-480.000000
126,1680.000000,-480.000000
127,1680.000000,-520.000000
128,1680.000000,-480.000000
129,1720.000000,-480.000000
130,1680.000000,-480.000000
131,1680.000000,-480.000000
132,1720.000000,-480.000000
133,1720.000000,-480.000000
134,1720.000000,-480.000000
135,1680.000000,-480.000000
136,1720.000000,-480.000000
137,1720.000000,-520.000000
138,1720.000000,-480.000000
139,1720.000000,-480.000000
140,1720.000000,-480.000000
141,1720.000000,-480.000000
142,1720.000000,-480.000000
143,1720.000000,-480.000000
144,1720.000000,-520.000000
145,1720.000000,-480.000000
146,1720.000000,-480.000000
147,1720.000000,-480.000000
148,1760.000000,-480.000000
149,1720.000000,-480.000000
150,1760.000000,-480.000000
151,1760.000000,-520.000000
152,1760.000000,-480.000000
153,1760.000000,-480.000000
154,1760.000000,-480.000000
155,1760.000000,-480.000000
156,1760.000000,-520.000000
157,1760.000000,-520.000000
158,1760.000000,-480.000000
159,1760.000000,-480.000000
160,1760.000000,-520.000000
161,1760.000000,-480.000000
162,1800.000000,-520.000000
163,1760.000000,-480.000000
164,1760.000000,-520.000000
165,1760.000000,-480.000000
166,1760.000000,-480.000000
167,1760.000000,-480.000000
168,1760.000000,-520.000000
169,1760.000000,-520.000000
170,1800.000000,-520.000000
171,1800.000000,-520.000000
172,1760.000000,-480.000000
173,1800.000000,-480.000000
174,1800.000000,-520.000000
175,1800.000000,-520.000000
176,1800.000000,-520.000000
177,1800.000000,-520.000000
178,1800.000000,-520.000000
179,1800.000000,-520.000000
180,1800.000000,-480.000000
181,1800.000000,-480.000000
182,1800.000000,-480.000000
183,1800.000000,-520.000000
184,1800.000000,-480.000000
185,1800.000000,-520.000000
186,1800.000000,-480.000000
187,1800.000000,-480.000000
188,1840.000000,-520.000000
189,1800.000000,-520.000000
190,1840.000000,-480.000000
191,1840.000000,-480.000000
192,1840.000000,-480.000000
193,1840.000000,-480.000000
194,1840.000000,-480.000000
195,1840.000000,-520.000000
196,1840.000000,-480.000000
197,1840.000000,-520.000000
198,1880.000000,-520.000000
199,1840.000000,-480.000000
200,1840.000000,-480.000000
201,1880.000000,-480.000000
202,1880.000000,-520.000000
203,1880.000000,-480.000000
204,1880.000000,-520.000000
205,1840.000000,-480.000000
206,1880.000000,-480.000000
207,1840.000000,-480.000000
208,1880.000000,-520.000000
209,1880.000000,-520.000000
210,1880.000000,-480.000000
211,1880.000000,-520.000000
212,1880.000000,-520.000000
213,1880.000000,-480.000000
214,1880.000000,-480.000000
215,1920.000000,-480.000000
216,1880.000000,-480.000000
217,1880.000000,-520.000000
218,1920.000000,-480.000000
219,1920.000000,-480.000000
220,1880.000000,-480.000000
221,1920.000000,-480.000000
222,1920.000000,-480.000000
223,1920.000000,-480.000000
224,1920.000000,-480.000000
225,1920.000000,-520.000000
226,1920.000000,-480.000000
227,1920.000000,-480.000000
228,1920.000000,-480.000000
229,1920.000000,-520.000000
230,1920.000000,-520.000000
231,1920.000000,-520.000000
232,1920.000000,-480.000000
233,1920.000000,-480.000000
234,1960.000000,-520.000000
235,1920.000000,-480.000000
236,1920.000000,-480.000000
237,1920.000000,-480.000000
238,1920.000000,-480.000000
239,1960.000000,-520.000000
240,1960.000000,-520.000000
241,1920.000000,-480.000000
242,1960.000000,-520.000000
243,1960.000000,-520.000000
244,1920.000000,-480.000000
245,1960.000000,-520.000000
246,1960.000000,-480.000000
247,1960.000000,-520.000000
248,2000.000000,-480.000000
249,1960.000000,-480.000000
250,1920.000000,-520.000000
251,1960.000000,-520.000000
252,1960.000000,-480.000000
253,1960.000000,-480.000000
254,2000.000000,-520.000000
255,1960.000000,-520.000000
256,2000.000000,-520.000000
257,2000.000000,-520.000000
258,2000.000000,-480.000000
259,2000.000000,-480.000000
260,2000.000000,-480.000000
261,2000.000000,-520.000000
262,2000.000000,-480.000000
263,1960.000000,-480.000000
264,2000.000000,-480.000000
265,2000.000000,-480.000000
266,2000.000000,-520.000000
267,2040.000000,-480.000000
268,2000.000000,-480.000000
269,2000.000000,-480.000000
270,2000.000000,-520.000000
271,2000.000000,-480.000000
272,2040.000000,-480.000000
273,2000.000000,-480.000000
274,2040.000000,-520.000000
275,2000.000000,-480.000000
276,2000.000000,-480.000000
277,2040.000000,-480.000000
278,2040.000000,-480.000000
279,2040.000000,-480.000000
280,2040.000000,-480.000000
281,2040.000000,-520.000000
282,2000.000000,-520.000000
283,2040.000000,-480.000000
284,2040.000000,-520.000000
285,2040.000000,-480.000000
286,2080.000000,-480.000000
287,2040.000000,-480.000000
288,2040.000000,-480.000000
289,2080.000000,-480.000000
290,2040.000000,-520.000000
291,2080.000000,-480.000000
292,2080.000000,-480.000000
293,2080.000000,-480.000000
294,2080.000000,-480.000000
295,2080.000000,-480.000000
296,2080.000000,-480.000000
297,2080.000000,-480.000000
298,2080.000000,-480.000000
299,2080.000000,-480.000000
300,2080.000000,-480.000000
301,2080.000000,-480.000000
302,2120.000000,-480.000000
303,2080.000000,-520.000000
304,2080.000000,-480.000000
305,2080.000000,-480.000000
306,2120.000000,-520.000000
307,2120.000000,-480.000000
308,2120.000000,-480.000000
309,2080.000000,-520.000000
310,2120.000000,-520.000000
311,2120.000000,-520.000000
312,2120.000000,-520.000000
313,2120.000000,-480.000000
314,2120.000000,-480.000000
315,2160.000000,-480.000000
316,2120.000000,-480.000000
317,2120.000000,-480.000000
318,2120.000000,-480.000000
319,2120.000000,-520.000000
320,2160.000000,-480.000000
321,2120.000000,-480.000000
322,2160.000000,-480.000000
323,2120.000000,-480.000000
324,2120.000000,-480.000000
325,2160.000000,-480.000000
326,2160.000000,-480.000000
327,2160.000000,-480.000000
328,2120.000000,-480.000000
329,2160.000000,-480.000000
330,2160.000000,-480.000000
331,2160.000000,-480.000000
332,2160.000000,-520.000000
333,2160.000000,-480.000000
334,2160.000000,-480.000000
335,2160.000000,-520.000000
336,2200.000000,-480.000000
337,2160.000000,-480.000000
338,2160.000000,-520.000000
339,2200.000000,-480.000000
340,2200.000000,-520.000000
341,2160.000000,-520.000000
342,2200.000000,-480.000000
343,2200.000000,-480.000000
344,2200.000000,-480.000000
345,2200.000000,-480.000000
346,2200.000000,-480.000000
347,2200.000000,-520.000000
348,2200.000000,-480.000000
349,2200.000000,-480.000000
350,2200.000000,-520.000000
351,2200.000000,-520.000000
352,2200.000000,-480.000000
353,2200.000000,-480.000000
354,2200.000000,-520.000000
355,2200.000000,-480.000000
356,2200.000000,-480.000000
357,2240.000000,-480.000000
358,2200.000000,-520.000000
359,2200.000000,-520.000000
360,2240.000000,-480.000000
361,2240.000000,-520.000000
362,2240.000000,-480.000000
363,2200.000000,-520.000000
364,2240.000000,-480.000000
365,2240.000000,-520.000000
366,2240.000000,-480.000000
367,2240.000000,-480.000000
368,2240.000000,-480.000000
369,2240.000000,-480.000000
370,2240.000000,-480.000000
371,2240.000000,-480.000000
372,2280.000000,-520.000000
373,2280.000000,-480.000000
374,2280.000000,-480.000000
375,2240.000000,-480.000000
376,2280.000000,-480.000000
377,2280.000000,-480.000000
378,2280.000000,-480.000000
379,2280.000000,-480.000000
380,2280.000000,-480.000000
381,2280.000000,-480.000000
382,2280.000000,-520.000000
383,2280.000000,-480.000000
384,2280.000000,-480.000000
385,2280.000000,-480.000000
386,2280.000000,-480.000000
387,2280.000000,-480.000000
388,2280.000000,-480.000000
389,2280.000000,-520.000000
390,2280.000000,-520.000000
391,2280.000000,-520.000000
392,2320.000000,-480.000000
393,2320.000000,-480.000000
394,2320.000000,-480.000000
395,2320.000000,-520.000000
396,2320.000000,-480.000000
397,2320.000000,-520.000000
398,2320.000000,-520.000000
399,2320.000000,-480.000000
400,2320.000000,-520.000000
401,2320.000000,-520.000000
402,2360.000000,-480.000000
403,2360.000000,-480.000000
404,2320.000000,-520.000000
405,2320.000000,-480.000000
406,2320.000000,-520.000000
407,2320.000000,-520.000000
408,2360.000000,-480.000000
409,2360.000000,-520.000000
410,2360.000000,-520.000000
411,2360.000000,-520.000000
412,2360.000000,-520.000000
413,2360.000000,-480.000000
414,2360.000000,-480.000000
415,2360.000000,-520.000000
416,2360.000000,-480.000000
417,2360.000000,-480.000000
418,2360.000000,-480.000000
419,2360.000000,-480.000000
420,2400.000000,-520.000000
421,2360.000000,-480.000000
422,2360.000000,-480.000000
423,2400.000000,-520.000000
424,2360.000000,-520.000000
425,2400.000000,-520.000000
426,2400.000000,-480.000000
427,2360.000000,-520.000000
428,2400.000000,-520.000000
429,2400.000000,-520.000000
430,2360.000000,-520.000000
431,2400.000000,-520.000000
432,2360.000000,-520.000000
433,2400.000000,-520.000000
434,2400.000000,-480.000000
435,2400.000000,-480.000000
436,2400.000000,-480.000000
437,2400.000000,-520.000000
438,2440.000000,-480.000000
439,2400.000000,-480.000000
440,2440.000000,-520.000000
441,2400.000000,-520.000000
442,2440.000000,-480.000000
443,2400.000000,-520.000000
444,2440.000000,-480.000000
445,2400.000000,-480.000000
446,2440.000000,-480.000000
447,2440.000000,-520.000000
448,2440.000000,-520.000000
449,2440.000000,-480.000000
450,2440.000000,-480.000000
451,2440.000000,-480.000000
452,2440.000000,-480.000000
453,2440.000000,-480.000000
454,2480.000000,-520.000000
455,2440.000000,-520.000000
456,2480.000000,-480.000000
457,2480.000000,-480.000000
458,2480.000000,-520.000000
459,2480.000000,-480.000000
460,2480.000000,-480.000000
461,2440.000000,-520.000000
462,2480.000000,-480.000000
463,2480.000000,-520.000000
464,2480.000000,-480.000000
465,2440.000000,-520.000000
466,2480.000000,-520.000000
467,2480.000000,-480.000000
468,2520.000000,-480.000000
469,2480.000000,-520.000000
470,2520.000000,-480.000000
471,2480.000000,-520.000000
472,2520.000000,-480.000000
473,2480.000000,-480.000000
474,2520.000000,-480.000000
475,2520.000000,-480.000000
476,2520.000000,-480.000000
477,2520.000000,-480.000000
478,2520.000000,-520.000000
479,2520.000000,-480.000000
480,2520.000000,-480.000000
481,2520.000000,-480.000000
482,2520.000000,-520.000000
483,2520.000000,-480.000000
484,2520.000000,-520.000000
485,2480.000000,-480.000000
486,2520.000000,-480.000000
487,2520.000000,-480.000000
488,2520.000000,-480.000000
489,2520.000000,-480.000000
490,2520.000000,-520.000000
491,2560.000000,-520.000000
492,2520.000000,-520.000000
493,2560.000000,-480.000000
494,2560.000000,-520.000000
495,2560.000000,-480.000000
496,2560.000000,-520.000000
497,2560.000000,-480.000000
498,2560.000000,-520.000000
499,2560.000000,-520.000000
500,2560.000000,-480.000000
501,2560.000000,-480.000000
502,2560.000000,-520.000000
503,2560.000000,-480.000000
504,2560.000000,-480.000000
505,2560.000000,-520.000000
506,2560.000000,-520.000000
507,2560.000000,-480.000000
508,2560.000000,-520.000000
509,2560.000000,-480.000000
510,2560.000000,-480.000000
511,2560.000000,-520.000000
512,2600.000000,-480.000000
513,2600.000000,-520.000000
514,2560.000000,-480.000000
515,2600.000000,-520.000000
516,2600.000000,-480.000000
517,2600.000000,-520.000000
518,2600.000000,-480.000000
519,2600.000000,-480.000000
520,2600.000000,-480.000000
521,2600.000000,-480.000000
522,2600.000000,-480.000000
523,2600.000000,-480.000000
524,2600.000000,-520.000000
525,2600.000000,-480.000000
526,2600.000000,-520.000000
527,2600.000000,-480.000000
528,2640.000000,-520.000000
529,2640.000000,-480.000000
530,2640.000000,-480.000000
531,2640.000000,-480.000000
532,2640.000000,-480.000000
533,2680.000000,-480.000000
534,2640.000000,-480.000000
535,2640.000000,-480.000000
536,2640.000000,-480.000000
537,2640.000000,-520.000000
538,2640.000000,-520.000000
539,2640.000000,-480.000000
540,2680.000000,-520.000000
541,2680.000000,-480.000000
542,2680.000000,-520.000000
543,2680.000000,-520.000000
544,2680.000000,-520.000000
545,2680.000000,-520.000000
546,2680.000000,-480.000000
547,2680.000000,-480.000000
548,2680.000000,-480.000000
549,2680.000000,-480.000000
550,2680.000000,-480.000000
551,2680.000000,-520.000000
552,2680.000000,-480.000000
553,2680.000000,-480.000000
554,2680.000000,-480.000000
555,2680.000000,-480.000000
556,2680.000000,-480.000000
557,2720.000000,-520.000000
558,2680.000000,-520.000000
559,2720.000000,-480.000000
560,2720.000000,-480.000000
561,2680.000000,-480.000000
562,2680.000000,-480.000000
563,2720.000000,-480.000000
564,2720.000000,-480.000000
565,2720.000000,-520.000000
566,2720.000000,-480.000000
567,2720.000000,-480.000000
568,2720.000000,-480.000000
569,2720.000000,-480.000000
570,2720.000000,-480.000000
571,2760.000000,-520.000000
572,2720.000000,-480.000000
573,2720.000000,-480.000000
574,2760.000000,-480.000000
575,2760.000000,-480.000000
576,2760.000000,-480.000000
577,2760.000000,-520.000000
578,2760.000000,-520.000000
579,2760.000000,-480.000000
580,2760.000000,-520.000000
581,2760.000000,-520.000000
582,2800.000000,-480.000000
583,2760.000000,-480.000000
584,2760.000000,-520.000000
585,2760.000000,-520.000000
586,2760.000000,-480.000000
587,2760.000000,-480.000000
588,2760.000000,-480.000000
589,2800.000000,-480.000000
590,2760.000000,-520.000000
591,2800.000000,-480.000000
592,2800.000000,-480.000000
593,2800.000000,-520.000000
594,2800.000000,-480.000000
595,2760.000000,-480.000000
596,2800.000000,-520.000000
597,2760.000000,-480.000000
598,2800.000000,-480.000000
599,2800.000000,-520.000000
600,2800.000000,-480.000000
601,2800.000000,-480.000000
602,2800.000000,-520.000000
603,2800.000000,-480.000000
604,2800.000000,-480.000000
605,2800.000000,-480.000000
606,2800.000000,-480.000000
607,2840.000000,-520.000000
608,2800.000000,-520.000000
609,2800.000000,-520.000000
610,2800.000000,-520.000000
611,2840.000000,-480.000000
612,2800.000000,-480.000000
613,2840.000000,-480.000000
614,2840.000000,-480.000000
615,2840.000000,-520.000000
616,2840.000000,-480.000000
617,2800.000000,-480.000000
618,2840.000000,-480.000000
619,2840.000000,-480.000000
620,2840.000000,-480.000000
621,2840.000000,-480.000000
622,2840.000000,-520.000000
623,2840.000000,-480.000000
624,2840.000000,-480.000000
625,2840.000000,-520.000000
626,2840.000000,-520.000000
627,2840.000000,-480.000000
628,2840.000000,-520.000000
629,2880.000000,-520.000000
630,2880.000000,-480.000000
631,2880.000000,-480.000000
632,2880.000000,-520.000000
633,2880.000000,-480.000000
634,2880.000000,-520.000000
635,2880.000000,-480.000000
636,2880.000000,-480.000000
637,2880.000000,-520.000000
638,2880.000000,-480.000000
639,2880.000000,-480.000000
640,2880.000000,-520.000000
641,2880.000000,-480.000000
642,2920.000000,-480.000000
643,2880.000000,-480.000000
644,2880.000000,-520.000000
645,2920.000000,-520.000000
646,2920.000000,-480.000000
647,2920.000000,-480.000000
648,2880.000000,-480.000000
649,2880.000000,-520.000000
650,2920.000000,-480.000000
651,2880.000000,-480.000000
652,2880.000000,-480.000000
653,2880.000000,-480.000000
654,2880.000000,-480.000000
655,2880.000000,-480.000000
656,2880.000000,-520.000000
657,2880.000000,-520.000000
658,2880.000000,-480.000000
659,2880.000000,-520.000000
660,2880.000000,-480.000000
661,2880.000000,-520.000000
662,2840.000000,-520.000000
663,2880.000000,-480.000000
664,2880.000000,-520.000000
665,2840.000000,-520.000000
666,2840.000000,-480.000000
667,2880.000000,-520.000000
668,2840.000000,-480.000000
669,2840.000000,-480.000000
670,2840.000000,-480.000000
671,2840.000000,-520.000000
672,2840.000000,-480.000000
673,2840.000000,-520.000000
674,2840.000000,-520.000000
675,2840.000000,-480.000000
676,2840.000000,-520.000000
677,2840.000000,-480.000000
678,2840.000000,-520.000000
679,2840.000000,-480.000000
680,2840.000000,-520.000000
681,2800.000000,-520.000000
682,2840.000000,-520.000000
683,2840.000000,-480.000000
684,2800.000000,-480.000000
685,2800.000000,-520.000000
686,2840.000000,-480.000000
687,2800.000000,-520.000000
688,2800.000000,-480.000000
689,2800.000000,-480.000000
690,2800.000000,-480.000000
691,2800.000000,-520.000000
692,2800.000000,-480.000000
693,2800.000000,-520.000000
694,2800.000000,-520.000000
695,2800.000000,-480.000000
696,2800.000000,-520.000000
697,2760.000000,-520.000000
698,2800.000000,-480.000000
699,2800.000000,-480.000000
700,2800.000000,-520.000000
701,2800.000000,-480.000000
702,2760.000000,-480.000000
703,2800.000000,-480.000000
704,2800.000000,-480.000000
705,2760.000000,-520.000000
706,2760.000000,-520.000000
707,2800.000000,-520.000000
